Lecture 05: GWAS in R – Statistical Genetics
…
# A tibble: 6 × 7
  FID   IID     dad     mom       sex pheno population
  <chr> <chr>   <chr>   <chr>   <dbl> <dbl> <chr>     
1 2427  NA19919 NA19908 NA19909     1     0 ASW       
2 2431  NA19916 0       0           1     0 ASW       
3 2424  NA19835 0       0           2     0 ASW       
4 2469  NA20282 0       0           2     0 ASW       
5 2368  NA19703 0       0           1     0 ASW       
6 2425  NA19902 NA19900 NA19901     2     0 ASW       

metadata |>
    mutate(population = case_when(population == "MEX" ~ "MXL", 
    TRUE ~ population))

# A tibble: 1,397 × 7
   FID   IID     dad     mom       sex pheno population
   <chr> <chr>   <chr>   <chr>   <dbl> <dbl> <chr>     
 1 2427  NA19919 NA19908 NA19909     1     0 ASW       
 2 2431  NA19916 0       0           1     0 ASW       
 3 2424  NA19835 0       0           2     0 ASW       
 4 2469  NA20282 0       0           2     0 ASW       
 5 2368  NA19703 0       0           1     0 ASW       
 6 2425  NA19902 NA19900 NA19901     2     0 ASW       
 7 2425  NA19901 0       0           2     0 ASW       
 8 2427  NA19908 0       0           1     0 ASW       
 9 2430  NA19914 0       0           2     0 ASW       
10 2470  NA20287 0       0           2     0 ASW       
# ℹ 1,387 more rows
…
